-- Merging decision tree log ---
manifest
ADDED from D:\Clonned\bugs-war\AndroidStuff\app\src\main\AndroidManifest.xml:2:1-24:12
INJECTED from D:\Clonned\bugs-war\AndroidStuff\app\src\main\AndroidManifest.xml:2:1-24:12
INJECTED from D:\Clonned\bugs-war\AndroidStuff\app\src\main\AndroidManifest.xml:2:1-24:12
INJECTED from D:\Clonned\bugs-war\AndroidStuff\app\src\main\AndroidManifest.xml:2:1-24:12
MERGED from [androidx.appcompat:appcompat:1.1.0] C:\Users\MECH304\.gradle\caches\transforms-2\files-2.1\6119d746697059b7e1b74aab4d181f56\appcompat-1.1.0\AndroidManifest.xml:17:1-24:12
MERGED from [com.google.android.gms:play-services-ads:18.3.0] C:\Users\MECH304\.gradle\caches\transforms-2\files-2.1\dc024a5074ca48a10ef5590ac9c1f403\jetified-play-services-ads-18.3.0\AndroidManifest.xml:17:1-25:12
MERGED from [com.google.android.gms:play-services-ads-identifier:17.0.0] C:\Users\MECH304\.gradle\caches\transforms-2\files-2.1\f57077feaac73ce9e679b2c86ae76e87\play-services-ads-identifier-17.0.0\AndroidManifest.xml:17:1-24:12
MERGED from [com.google.android.gms:play-services-gass:18.3.0] C:\Users\MECH304\.gradle\caches\transforms-2\files-2.1\504f20ba8a230101046163a478ee4fed\play-services-gass-18.3.0\AndroidManifest.xml:2:1-9:12
MERGED from [com.google.android.gms:play-services-ads-lite:18.3.0] C:\Users\MECH304\.gradle\caches\transforms-2\files-2.1\fc5193868854d7cd947541e78389eacf\play-services-ads-lite-18.3.0\AndroidManifest.xml:17:1-42:12
MERGED from [com.google.android.gms:play-services-measurement-sdk-api:17.1.0] C:\Users\MECH304\.gradle\caches\transforms-2\files-2.1\a30d31382de4f03f80c19b076c75b8a7\play-services-measurement-sdk-api-17.1.0\AndroidManifest.xml:17:1-27:12
MERGED from [com.google.android.gms:play-services-tasks:17.0.0] C:\Users\MECH304\.gradle\caches\transforms-2\files-2.1\2b8a3547a6423f6fb15f19a78415dd89\play-services-tasks-17.0.0\AndroidManifest.xml:2:1-9:12
MERGED from [com.google.android.gms:play-services-measurement-base:17.1.0] C:\Users\MECH304\.gradle\caches\transforms-2\files-2.1\37c39b77d53822f54f5439ccca5a6b28\play-services-measurement-base-17.1.0\AndroidManifest.xml:2:1-9:12
MERGED from [com.google.android.gms:play-services-basement:17.0.0] C:\Users\MECH304\.gradle\caches\transforms-2\files-2.1\b1e2ec9f9fcd94193235fc98ea76492e\jetified-play-services-basement-17.0.0\AndroidManifest.xml:17:1-28:12
MERGED from [androidx.fragment:fragment:1.1.0] C:\Users\MECH304\.gradle\caches\transforms-2\files-2.1\0362ff4d8672321347a402c32368f192\fragment-1.1.0\AndroidManifest.xml:17:1-24:12
MERGED from [androidx.appcompat:appcompat-resources:1.1.0] C:\Users\MECH304\.gradle\caches\transforms-2\files-2.1\ddf6a25e6e3e5e2af441269b48288beb\appcompat-resources-1.1.0\AndroidManifest.xml:17:1-24:12
MERGED from [androidx.browser:browser:1.0.0] C:\Users\MECH304\.gradle\caches\transforms-2\files-2.1\c18ea2bebf3d3f70044b8f352bfcc396\browser-1.0.0\AndroidManifest.xml:17:1-22:12
MERGED from [androidx.legacy:legacy-support-core-ui:1.0.0] C:\Users\MECH304\.gradle\caches\transforms-2\files-2.1\ec593f8d91037f6ef1bbcd6a177afa1c\legacy-support-core-ui-1.0.0\AndroidManifest.xml:17:1-22:12
MERGED from [androidx.drawerlayout:drawerlayout:1.0.0] C:\Users\MECH304\.gradle\caches\transforms-2\files-2.1\00bc847ce5b9e3ce7b40d465bffbf9e9\drawerlayout-1.0.0\AndroidManifest.xml:17:1-22:12
MERGED from [androidx.viewpager:viewpager:1.0.0] C:\Users\MECH304\.gradle\caches\transforms-2\files-2.1\4932f7e67b26f042b51fa62f1aa4816d\viewpager-1.0.0\AndroidManifest.xml:17:1-22:12
MERGED from [androidx.legacy:legacy-support-core-utils:1.0.0] C:\Users\MECH304\.gradle\caches\transforms-2\files-2.1\4f8b5527496d67480951cc322460db7f\legacy-support-core-utils-1.0.0\AndroidManifest.xml:17:1-22:12
MERGED from [androidx.loader:loader:1.0.0] C:\Users\MECH304\.gradle\caches\transforms-2\files-2.1\5276819c062a92c029464122749254f1\loader-1.0.0\AndroidManifest.xml:17:1-22:12
MERGED from [androidx.activity:activity:1.0.0] C:\Users\MECH304\.gradle\caches\transforms-2\files-2.1\dbbcc99072b5616db9e0106b8ed65934\activity-1.0.0\AndroidManifest.xml:17:1-24:12
MERGED from [androidx.vectordrawable:vectordrawable-animated:1.1.0] C:\Users\MECH304\.gradle\caches\transforms-2\files-2.1\d1ca7cd3905794bed09cb92934ccd6c2\vectordrawable-animated-1.1.0\AndroidManifest.xml:17:1-24:12
MERGED from [androidx.vectordrawable:vectordrawable:1.1.0] C:\Users\MECH304\.gradle\caches\transforms-2\files-2.1\4276267baf989d651cf25177c247ad49\vectordrawable-1.1.0\AndroidManifest.xml:17:1-24:12
MERGED from [androidx.coordinatorlayout:coordinatorlayout:1.0.0] C:\Users\MECH304\.gradle\caches\transforms-2\files-2.1\8849109129fcb2f39779166fb64480b1\coordinatorlayout-1.0.0\AndroidManifest.xml:17:1-22:12
MERGED from [androidx.slidingpanelayout:slidingpanelayout:1.0.0] C:\Users\MECH304\.gradle\caches\transforms-2\files-2.1\5ad830c9e1047f79e3f0f7e9e42ab8ab\slidingpanelayout-1.0.0\AndroidManifest.xml:17:1-22:12
MERGED from [androidx.customview:customview:1.0.0] C:\Users\MECH304\.gradle\caches\transforms-2\files-2.1\a3c457ded457b98b207b4f227d629399\customview-1.0.0\AndroidManifest.xml:17:1-22:12
MERGED from [androidx.swiperefreshlayout:swiperefreshlayout:1.0.0] C:\Users\MECH304\.gradle\caches\transforms-2\files-2.1\3d4a3c67e39fa8d6d0c0f126c28b81d8\swiperefreshlayout-1.0.0\AndroidManifest.xml:17:1-22:12
MERGED from [androidx.asynclayoutinflater:asynclayoutinflater:1.0.0] C:\Users\MECH304\.gradle\caches\transforms-2\files-2.1\82b148795609bbbaf8e825fc2ff2a6bf\asynclayoutinflater-1.0.0\AndroidManifest.xml:17:1-22:12
MERGED from [androidx.core:core:1.1.0] C:\Users\MECH304\.gradle\caches\transforms-2\files-2.1\e9dab9c67c1ee3668e0bbf86c6d8cbd8\core-1.1.0\AndroidManifest.xml:17:1-26:12
MERGED from [androidx.cursoradapter:cursoradapter:1.0.0] C:\Users\MECH304\.gradle\caches\transforms-2\files-2.1\fb2fbe77879a57ea0c5dfd6fe59ba874\cursoradapter-1.0.0\AndroidManifest.xml:17:1-22:12
MERGED from [androidx.versionedparcelable:versionedparcelable:1.1.0] C:\Users\MECH304\.gradle\caches\transforms-2\files-2.1\78be57497ca2a8dd090798c529f3e53d\versionedparcelable-1.1.0\AndroidManifest.xml:17:1-27:12
MERGED from [androidx.interpolator:interpolator:1.0.0] C:\Users\MECH304\.gradle\caches\transforms-2\files-2.1\3a992d8307f21a8f15eb649383ba6a6a\interpolator-1.0.0\AndroidManifest.xml:17:1-22:12
MERGED from [androidx.lifecycle:lifecycle-runtime:2.1.0] C:\Users\MECH304\.gradle\caches\transforms-2\files-2.1\ffa46f3d6480310395b7b525cf59ccde\lifecycle-runtime-2.1.0\AndroidManifest.xml:17:1-22:12
MERGED from [androidx.lifecycle:lifecycle-viewmodel:2.1.0] C:\Users\MECH304\.gradle\caches\transforms-2\files-2.1\64ed055c454b36433d45a77285ee24d6\lifecycle-viewmodel-2.1.0\AndroidManifest.xml:17:1-22:12
MERGED from [androidx.savedstate:savedstate:1.0.0] C:\Users\MECH304\.gradle\caches\transforms-2\files-2.1\3819fb4fef2e012192b32762458ba145\savedstate-1.0.0\AndroidManifest.xml:17:1-24:12
MERGED from [androidx.lifecycle:lifecycle-livedata:2.0.0] C:\Users\MECH304\.gradle\caches\transforms-2\files-2.1\63647da4654da12a6f2785cfbbad8123\lifecycle-livedata-2.0.0\AndroidManifest.xml:17:1-22:12
MERGED from [androidx.lifecycle:lifecycle-livedata-core:2.0.0] C:\Users\MECH304\.gradle\caches\transforms-2\files-2.1\733fc1d306cee2c05d3e1fb0b7527020\lifecycle-livedata-core-2.0.0\AndroidManifest.xml:17:1-22:12
MERGED from [androidx.arch.core:core-runtime:2.0.0] C:\Users\MECH304\.gradle\caches\transforms-2\files-2.1\fdd65d8b6066fd289a68b42931dc03a2\core-runtime-2.0.0\AndroidManifest.xml:17:1-22:12
MERGED from [androidx.documentfile:documentfile:1.0.0] C:\Users\MECH304\.gradle\caches\transforms-2\files-2.1\f582580d3eb247a74d915a27810a4674\documentfile-1.0.0\AndroidManifest.xml:17:1-22:12
MERGED from [androidx.localbroadcastmanager:localbroadcastmanager:1.0.0] C:\Users\MECH304\.gradle\caches\transforms-2\files-2.1\c75155371656c04dff3a027cdeb13e8a\localbroadcastmanager-1.0.0\AndroidManifest.xml:17:1-22:12
MERGED from [androidx.print:print:1.0.0] C:\Users\MECH304\.gradle\caches\transforms-2\files-2.1\53b4a4cf87c0ff501a8c414cec884555\print-1.0.0\AndroidManifest.xml:17:1-22:12
MERGED from [com.google.android.gms:play-services-ads-base:18.3.0] C:\Users\MECH304\.gradle\caches\transforms-2\files-2.1\31a15be1b9cbc0e14a06206e0cbad90d\play-services-ads-base-18.3.0\AndroidManifest.xml:2:1-9:12
INJECTED from D:\Clonned\bugs-war\AndroidStuff\app\src\main\AndroidManifest.xml:2:1-24:12
INJECTED from D:\Clonned\bugs-war\AndroidStuff\app\src\main\AndroidManifest.xml:2:1-24:12
INJECTED from D:\Clonned\bugs-war\AndroidStuff\app\src\main\AndroidManifest.xml:2:1-24:12
	package
		ADDED from D:\Clonned\bugs-war\AndroidStuff\app\src\main\AndroidManifest.xml:3:5-31
		INJECTED from D:\Clonned\bugs-war\AndroidStuff\app\src\main\AndroidManifest.xml
		INJECTED from D:\Clonned\bugs-war\AndroidStuff\app\src\main\AndroidManifest.xml
	android:versionName
		INJECTED from D:\Clonned\bugs-war\AndroidStuff\app\src\main\AndroidManifest.xml
		ADDED from D:\Clonned\bugs-war\AndroidStuff\app\src\main\AndroidManifest.xml:2:1-24:12
		INJECTED from D:\Clonned\bugs-war\AndroidStuff\app\src\main\AndroidManifest.xml
	android:versionCode
		INJECTED from D:\Clonned\bugs-war\AndroidStuff\app\src\main\AndroidManifest.xml
		ADDED from D:\Clonned\bugs-war\AndroidStuff\app\src\main\AndroidManifest.xml:2:1-24:12
		INJECTED from D:\Clonned\bugs-war\AndroidStuff\app\src\main\AndroidManifest.xml
	xmlns:android
		ADDED from D:\Clonned\bugs-war\AndroidStuff\app\src\main\AndroidManifest.xml:2:11-69
application
ADDED from D:\Clonned\bugs-war\AndroidStuff\app\src\main\AndroidManifest.xml:5:5-22:19
MERGED from [com.google.android.gms:play-services-ads-identifier:17.0.0] C:\Users\MECH304\.gradle\caches\transforms-2\files-2.1\f57077feaac73ce9e679b2c86ae76e87\play-services-ads-identifier-17.0.0\AndroidManifest.xml:22:5-20
MERGED from [com.google.android.gms:play-services-ads-identifier:17.0.0] C:\Users\MECH304\.gradle\caches\transforms-2\files-2.1\f57077feaac73ce9e679b2c86ae76e87\play-services-ads-identifier-17.0.0\AndroidManifest.xml:22:5-20
MERGED from [com.google.android.gms:play-services-gass:18.3.0] C:\Users\MECH304\.gradle\caches\transforms-2\files-2.1\504f20ba8a230101046163a478ee4fed\play-services-gass-18.3.0\AndroidManifest.xml:7:5-20
MERGED from [com.google.android.gms:play-services-gass:18.3.0] C:\Users\MECH304\.gradle\caches\transforms-2\files-2.1\504f20ba8a230101046163a478ee4fed\play-services-gass-18.3.0\AndroidManifest.xml:7:5-20
MERGED from [com.google.android.gms:play-services-ads-lite:18.3.0] C:\Users\MECH304\.gradle\caches\transforms-2\files-2.1\fc5193868854d7cd947541e78389eacf\play-services-ads-lite-18.3.0\AndroidManifest.xml:26:5-40:19
MERGED from [com.google.android.gms:play-services-ads-lite:18.3.0] C:\Users\MECH304\.gradle\caches\transforms-2\files-2.1\fc5193868854d7cd947541e78389eacf\play-services-ads-lite-18.3.0\AndroidManifest.xml:26:5-40:19
MERGED from [com.google.android.gms:play-services-tasks:17.0.0] C:\Users\MECH304\.gradle\caches\transforms-2\files-2.1\2b8a3547a6423f6fb15f19a78415dd89\play-services-tasks-17.0.0\AndroidManifest.xml:7:5-20
MERGED from [com.google.android.gms:play-services-tasks:17.0.0] C:\Users\MECH304\.gradle\caches\transforms-2\files-2.1\2b8a3547a6423f6fb15f19a78415dd89\play-services-tasks-17.0.0\AndroidManifest.xml:7:5-20
MERGED from [com.google.android.gms:play-services-measurement-base:17.1.0] C:\Users\MECH304\.gradle\caches\transforms-2\files-2.1\37c39b77d53822f54f5439ccca5a6b28\play-services-measurement-base-17.1.0\AndroidManifest.xml:7:5-20
MERGED from [com.google.android.gms:play-services-measurement-base:17.1.0] C:\Users\MECH304\.gradle\caches\transforms-2\files-2.1\37c39b77d53822f54f5439ccca5a6b28\play-services-measurement-base-17.1.0\AndroidManifest.xml:7:5-20
MERGED from [com.google.android.gms:play-services-basement:17.0.0] C:\Users\MECH304\.gradle\caches\transforms-2\files-2.1\b1e2ec9f9fcd94193235fc98ea76492e\jetified-play-services-basement-17.0.0\AndroidManifest.xml:22:5-26:19
MERGED from [com.google.android.gms:play-services-basement:17.0.0] C:\Users\MECH304\.gradle\caches\transforms-2\files-2.1\b1e2ec9f9fcd94193235fc98ea76492e\jetified-play-services-basement-17.0.0\AndroidManifest.xml:22:5-26:19
MERGED from [androidx.core:core:1.1.0] C:\Users\MECH304\.gradle\caches\transforms-2\files-2.1\e9dab9c67c1ee3668e0bbf86c6d8cbd8\core-1.1.0\AndroidManifest.xml:24:5-89
MERGED from [androidx.core:core:1.1.0] C:\Users\MECH304\.gradle\caches\transforms-2\files-2.1\e9dab9c67c1ee3668e0bbf86c6d8cbd8\core-1.1.0\AndroidManifest.xml:24:5-89
MERGED from [androidx.versionedparcelable:versionedparcelable:1.1.0] C:\Users\MECH304\.gradle\caches\transforms-2\files-2.1\78be57497ca2a8dd090798c529f3e53d\versionedparcelable-1.1.0\AndroidManifest.xml:24:5-25:19
MERGED from [androidx.versionedparcelable:versionedparcelable:1.1.0] C:\Users\MECH304\.gradle\caches\transforms-2\files-2.1\78be57497ca2a8dd090798c529f3e53d\versionedparcelable-1.1.0\AndroidManifest.xml:24:5-25:19
MERGED from [com.google.android.gms:play-services-ads-base:18.3.0] C:\Users\MECH304\.gradle\caches\transforms-2\files-2.1\31a15be1b9cbc0e14a06206e0cbad90d\play-services-ads-base-18.3.0\AndroidManifest.xml:7:5-20
MERGED from [com.google.android.gms:play-services-ads-base:18.3.0] C:\Users\MECH304\.gradle\caches\transforms-2\files-2.1\31a15be1b9cbc0e14a06206e0cbad90d\play-services-ads-base-18.3.0\AndroidManifest.xml:7:5-20
	android:appComponentFactory
		ADDED from [androidx.core:core:1.1.0] C:\Users\MECH304\.gradle\caches\transforms-2\files-2.1\e9dab9c67c1ee3668e0bbf86c6d8cbd8\core-1.1.0\AndroidManifest.xml:24:18-86
	android:supportsRtl
		ADDED from D:\Clonned\bugs-war\AndroidStuff\app\src\main\AndroidManifest.xml:10:9-35
	android:label
		ADDED from D:\Clonned\bugs-war\AndroidStuff\app\src\main\AndroidManifest.xml:8:9-41
	android:roundIcon
		ADDED from D:\Clonned\bugs-war\AndroidStuff\app\src\main\AndroidManifest.xml:9:9-54
	android:icon
		ADDED from D:\Clonned\bugs-war\AndroidStuff\app\src\main\AndroidManifest.xml:7:9-43
	android:allowBackup
		ADDED from D:\Clonned\bugs-war\AndroidStuff\app\src\main\AndroidManifest.xml:6:9-35
	android:theme
		ADDED from D:\Clonned\bugs-war\AndroidStuff\app\src\main\AndroidManifest.xml:11:9-40
activity#com.example.wpg3.MainActivity
ADDED from D:\Clonned\bugs-war\AndroidStuff\app\src\main\AndroidManifest.xml:12:9-18:20
	android:name
		ADDED from D:\Clonned\bugs-war\AndroidStuff\app\src\main\AndroidManifest.xml:12:19-47
intent-filter#action:name:android.intent.action.MAIN+category:name:android.intent.category.LAUNCHER
ADDED from D:\Clonned\bugs-war\AndroidStuff\app\src\main\AndroidManifest.xml:13:13-17:29
action#android.intent.action.MAIN
ADDED from D:\Clonned\bugs-war\AndroidStuff\app\src\main\AndroidManifest.xml:14:17-69
	android:name
		ADDED from D:\Clonned\bugs-war\AndroidStuff\app\src\main\AndroidManifest.xml:14:25-66
category#android.intent.category.LAUNCHER
ADDED from D:\Clonned\bugs-war\AndroidStuff\app\src\main\AndroidManifest.xml:16:17-77
	android:name
		ADDED from D:\Clonned\bugs-war\AndroidStuff\app\src\main\AndroidManifest.xml:16:27-74
meta-data#com.google.android.gms.ads.APPLICATION_ID
ADDED from D:\Clonned\bugs-war\AndroidStuff\app\src\main\AndroidManifest.xml:19:9-21:69
	android:value
		ADDED from D:\Clonned\bugs-war\AndroidStuff\app\src\main\AndroidManifest.xml:21:13-67
	android:name
		ADDED from D:\Clonned\bugs-war\AndroidStuff\app\src\main\AndroidManifest.xml:20:13-69
uses-sdk
INJECTED from D:\Clonned\bugs-war\AndroidStuff\app\src\main\AndroidManifest.xml reason: use-sdk injection requested
INJECTED from D:\Clonned\bugs-war\AndroidStuff\app\src\main\AndroidManifest.xml
INJECTED from D:\Clonned\bugs-war\AndroidStuff\app\src\main\AndroidManifest.xml
MERGED from [androidx.appcompat:appcompat:1.1.0] C:\Users\MECH304\.gradle\caches\transforms-2\files-2.1\6119d746697059b7e1b74aab4d181f56\appcompat-1.1.0\AndroidManifest.xml:20:5-22:41
MERGED from [androidx.appcompat:appcompat:1.1.0] C:\Users\MECH304\.gradle\caches\transforms-2\files-2.1\6119d746697059b7e1b74aab4d181f56\appcompat-1.1.0\AndroidManifest.xml:20:5-22:41
MERGED from [com.google.android.gms:play-services-ads:18.3.0] C:\Users\MECH304\.gradle\caches\transforms-2\files-2.1\dc024a5074ca48a10ef5590ac9c1f403\jetified-play-services-ads-18.3.0\AndroidManifest.xml:21:5-23:52
MERGED from [com.google.android.gms:play-services-ads:18.3.0] C:\Users\MECH304\.gradle\caches\transforms-2\files-2.1\dc024a5074ca48a10ef5590ac9c1f403\jetified-play-services-ads-18.3.0\AndroidManifest.xml:21:5-23:52
MERGED from [com.google.android.gms:play-services-ads-identifier:17.0.0] C:\Users\MECH304\.gradle\caches\transforms-2\files-2.1\f57077feaac73ce9e679b2c86ae76e87\play-services-ads-identifier-17.0.0\AndroidManifest.xml:20:5-44
MERGED from [com.google.android.gms:play-services-ads-identifier:17.0.0] C:\Users\MECH304\.gradle\caches\transforms-2\files-2.1\f57077feaac73ce9e679b2c86ae76e87\play-services-ads-identifier-17.0.0\AndroidManifest.xml:20:5-44
MERGED from [com.google.android.gms:play-services-gass:18.3.0] C:\Users\MECH304\.gradle\caches\transforms-2\files-2.1\504f20ba8a230101046163a478ee4fed\play-services-gass-18.3.0\AndroidManifest.xml:5:5-44
MERGED from [com.google.android.gms:play-services-gass:18.3.0] C:\Users\MECH304\.gradle\caches\transforms-2\files-2.1\504f20ba8a230101046163a478ee4fed\play-services-gass-18.3.0\AndroidManifest.xml:5:5-44
MERGED from [com.google.android.gms:play-services-ads-lite:18.3.0] C:\Users\MECH304\.gradle\caches\transforms-2\files-2.1\fc5193868854d7cd947541e78389eacf\play-services-ads-lite-18.3.0\AndroidManifest.xml:20:5-44
MERGED from [com.google.android.gms:play-services-ads-lite:18.3.0] C:\Users\MECH304\.gradle\caches\transforms-2\files-2.1\fc5193868854d7cd947541e78389eacf\play-services-ads-lite-18.3.0\AndroidManifest.xml:20:5-44
MERGED from [com.google.android.gms:play-services-measurement-sdk-api:17.1.0] C:\Users\MECH304\.gradle\caches\transforms-2\files-2.1\a30d31382de4f03f80c19b076c75b8a7\play-services-measurement-sdk-api-17.1.0\AndroidManifest.xml:20:5-44
MERGED from [com.google.android.gms:play-services-measurement-sdk-api:17.1.0] C:\Users\MECH304\.gradle\caches\transforms-2\files-2.1\a30d31382de4f03f80c19b076c75b8a7\play-services-measurement-sdk-api-17.1.0\AndroidManifest.xml:20:5-44
MERGED from [com.google.android.gms:play-services-tasks:17.0.0] C:\Users\MECH304\.gradle\caches\transforms-2\files-2.1\2b8a3547a6423f6fb15f19a78415dd89\play-services-tasks-17.0.0\AndroidManifest.xml:5:5-44
MERGED from [com.google.android.gms:play-services-tasks:17.0.0] C:\Users\MECH304\.gradle\caches\transforms-2\files-2.1\2b8a3547a6423f6fb15f19a78415dd89\play-services-tasks-17.0.0\AndroidManifest.xml:5:5-44
MERGED from [com.google.android.gms:play-services-measurement-base:17.1.0] C:\Users\MECH304\.gradle\caches\transforms-2\files-2.1\37c39b77d53822f54f5439ccca5a6b28\play-services-measurement-base-17.1.0\AndroidManifest.xml:5:5-44
MERGED from [com.google.android.gms:play-services-measurement-base:17.1.0] C:\Users\MECH304\.gradle\caches\transforms-2\files-2.1\37c39b77d53822f54f5439ccca5a6b28\play-services-measurement-base-17.1.0\AndroidManifest.xml:5:5-44
MERGED from [com.google.android.gms:play-services-basement:17.0.0] C:\Users\MECH304\.gradle\caches\transforms-2\files-2.1\b1e2ec9f9fcd94193235fc98ea76492e\jetified-play-services-basement-17.0.0\AndroidManifest.xml:20:5-44
MERGED from [com.google.android.gms:play-services-basement:17.0.0] C:\Users\MECH304\.gradle\caches\transforms-2\files-2.1\b1e2ec9f9fcd94193235fc98ea76492e\jetified-play-services-basement-17.0.0\AndroidManifest.xml:20:5-44
MERGED from [androidx.fragment:fragment:1.1.0] C:\Users\MECH304\.gradle\caches\transforms-2\files-2.1\0362ff4d8672321347a402c32368f192\fragment-1.1.0\AndroidManifest.xml:20:5-22:41
MERGED from [androidx.fragment:fragment:1.1.0] C:\Users\MECH304\.gradle\caches\transforms-2\files-2.1\0362ff4d8672321347a402c32368f192\fragment-1.1.0\AndroidManifest.xml:20:5-22:41
MERGED from [androidx.appcompat:appcompat-resources:1.1.0] C:\Users\MECH304\.gradle\caches\transforms-2\files-2.1\ddf6a25e6e3e5e2af441269b48288beb\appcompat-resources-1.1.0\AndroidManifest.xml:20:5-22:41
MERGED from [androidx.appcompat:appcompat-resources:1.1.0] C:\Users\MECH304\.gradle\caches\transforms-2\files-2.1\ddf6a25e6e3e5e2af441269b48288beb\appcompat-resources-1.1.0\AndroidManifest.xml:20:5-22:41
MERGED from [androidx.browser:browser:1.0.0] C:\Users\MECH304\.gradle\caches\transforms-2\files-2.1\c18ea2bebf3d3f70044b8f352bfcc396\browser-1.0.0\AndroidManifest.xml:20:5-44
MERGED from [androidx.browser:browser:1.0.0] C:\Users\MECH304\.gradle\caches\transforms-2\files-2.1\c18ea2bebf3d3f70044b8f352bfcc396\browser-1.0.0\AndroidManifest.xml:20:5-44
MERGED from [androidx.legacy:legacy-support-core-ui:1.0.0] C:\Users\MECH304\.gradle\caches\transforms-2\files-2.1\ec593f8d91037f6ef1bbcd6a177afa1c\legacy-support-core-ui-1.0.0\AndroidManifest.xml:20:5-44
MERGED from [androidx.legacy:legacy-support-core-ui:1.0.0] C:\Users\MECH304\.gradle\caches\transforms-2\files-2.1\ec593f8d91037f6ef1bbcd6a177afa1c\legacy-support-core-ui-1.0.0\AndroidManifest.xml:20:5-44
MERGED from [androidx.drawerlayout:drawerlayout:1.0.0] C:\Users\MECH304\.gradle\caches\transforms-2\files-2.1\00bc847ce5b9e3ce7b40d465bffbf9e9\drawerlayout-1.0.0\AndroidManifest.xml:20:5-44
MERGED from [androidx.drawerlayout:drawerlayout:1.0.0] C:\Users\MECH304\.gradle\caches\transforms-2\files-2.1\00bc847ce5b9e3ce7b40d465bffbf9e9\drawerlayout-1.0.0\AndroidManifest.xml:20:5-44
MERGED from [androidx.viewpager:viewpager:1.0.0] C:\Users\MECH304\.gradle\caches\transforms-2\files-2.1\4932f7e67b26f042b51fa62f1aa4816d\viewpager-1.0.0\AndroidManifest.xml:20:5-44
MERGED from [androidx.viewpager:viewpager:1.0.0] C:\Users\MECH304\.gradle\caches\transforms-2\files-2.1\4932f7e67b26f042b51fa62f1aa4816d\viewpager-1.0.0\AndroidManifest.xml:20:5-44
MERGED from [androidx.legacy:legacy-support-core-utils:1.0.0] C:\Users\MECH304\.gradle\caches\transforms-2\files-2.1\4f8b5527496d67480951cc322460db7f\legacy-support-core-utils-1.0.0\AndroidManifest.xml:20:5-44
MERGED from [androidx.legacy:legacy-support-core-utils:1.0.0] C:\Users\MECH304\.gradle\caches\transforms-2\files-2.1\4f8b5527496d67480951cc322460db7f\legacy-support-core-utils-1.0.0\AndroidManifest.xml:20:5-44
MERGED from [androidx.loader:loader:1.0.0] C:\Users\MECH304\.gradle\caches\transforms-2\files-2.1\5276819c062a92c029464122749254f1\loader-1.0.0\AndroidManifest.xml:20:5-44
MERGED from [androidx.loader:loader:1.0.0] C:\Users\MECH304\.gradle\caches\transforms-2\files-2.1\5276819c062a92c029464122749254f1\loader-1.0.0\AndroidManifest.xml:20:5-44
MERGED from [androidx.activity:activity:1.0.0] C:\Users\MECH304\.gradle\caches\transforms-2\files-2.1\dbbcc99072b5616db9e0106b8ed65934\activity-1.0.0\AndroidManifest.xml:20:5-22:41
MERGED from [androidx.activity:activity:1.0.0] C:\Users\MECH304\.gradle\caches\transforms-2\files-2.1\dbbcc99072b5616db9e0106b8ed65934\activity-1.0.0\AndroidManifest.xml:20:5-22:41
MERGED from [androidx.vectordrawable:vectordrawable-animated:1.1.0] C:\Users\MECH304\.gradle\caches\transforms-2\files-2.1\d1ca7cd3905794bed09cb92934ccd6c2\vectordrawable-animated-1.1.0\AndroidManifest.xml:20:5-22:41
MERGED from [androidx.vectordrawable:vectordrawable-animated:1.1.0] C:\Users\MECH304\.gradle\caches\transforms-2\files-2.1\d1ca7cd3905794bed09cb92934ccd6c2\vectordrawable-animated-1.1.0\AndroidManifest.xml:20:5-22:41
MERGED from [androidx.vectordrawable:vectordrawable:1.1.0] C:\Users\MECH304\.gradle\caches\transforms-2\files-2.1\4276267baf989d651cf25177c247ad49\vectordrawable-1.1.0\AndroidManifest.xml:20:5-22:41
MERGED from [androidx.vectordrawable:vectordrawable:1.1.0] C:\Users\MECH304\.gradle\caches\transforms-2\files-2.1\4276267baf989d651cf25177c247ad49\vectordrawable-1.1.0\AndroidManifest.xml:20:5-22:41
MERGED from [androidx.coordinatorlayout:coordinatorlayout:1.0.0] C:\Users\MECH304\.gradle\caches\transforms-2\files-2.1\8849109129fcb2f39779166fb64480b1\coordinatorlayout-1.0.0\AndroidManifest.xml:20:5-44
MERGED from [androidx.coordinatorlayout:coordinatorlayout:1.0.0] C:\Users\MECH304\.gradle\caches\transforms-2\files-2.1\8849109129fcb2f39779166fb64480b1\coordinatorlayout-1.0.0\AndroidManifest.xml:20:5-44
MERGED from [androidx.slidingpanelayout:slidingpanelayout:1.0.0] C:\Users\MECH304\.gradle\caches\transforms-2\files-2.1\5ad830c9e1047f79e3f0f7e9e42ab8ab\slidingpanelayout-1.0.0\AndroidManifest.xml:20:5-44
MERGED from [androidx.slidingpanelayout:slidingpanelayout:1.0.0] C:\Users\MECH304\.gradle\caches\transforms-2\files-2.1\5ad830c9e1047f79e3f0f7e9e42ab8ab\slidingpanelayout-1.0.0\AndroidManifest.xml:20:5-44
MERGED from [androidx.customview:customview:1.0.0] C:\Users\MECH304\.gradle\caches\transforms-2\files-2.1\a3c457ded457b98b207b4f227d629399\customview-1.0.0\AndroidManifest.xml:20:5-44
MERGED from [androidx.customview:customview:1.0.0] C:\Users\MECH304\.gradle\caches\transforms-2\files-2.1\a3c457ded457b98b207b4f227d629399\customview-1.0.0\AndroidManifest.xml:20:5-44
MERGED from [androidx.swiperefreshlayout:swiperefreshlayout:1.0.0] C:\Users\MECH304\.gradle\caches\transforms-2\files-2.1\3d4a3c67e39fa8d6d0c0f126c28b81d8\swiperefreshlayout-1.0.0\AndroidManifest.xml:20:5-44
MERGED from [androidx.swiperefreshlayout:swiperefreshlayout:1.0.0] C:\Users\MECH304\.gradle\caches\transforms-2\files-2.1\3d4a3c67e39fa8d6d0c0f126c28b81d8\swiperefreshlayout-1.0.0\AndroidManifest.xml:20:5-44
MERGED from [androidx.asynclayoutinflater:asynclayoutinflater:1.0.0] C:\Users\MECH304\.gradle\caches\transforms-2\files-2.1\82b148795609bbbaf8e825fc2ff2a6bf\asynclayoutinflater-1.0.0\AndroidManifest.xml:20:5-44
MERGED from [androidx.asynclayoutinflater:asynclayoutinflater:1.0.0] C:\Users\MECH304\.gradle\caches\transforms-2\files-2.1\82b148795609bbbaf8e825fc2ff2a6bf\asynclayoutinflater-1.0.0\AndroidManifest.xml:20:5-44
MERGED from [androidx.core:core:1.1.0] C:\Users\MECH304\.gradle\caches\transforms-2\files-2.1\e9dab9c67c1ee3668e0bbf86c6d8cbd8\core-1.1.0\AndroidManifest.xml:20:5-22:41
MERGED from [androidx.core:core:1.1.0] C:\Users\MECH304\.gradle\caches\transforms-2\files-2.1\e9dab9c67c1ee3668e0bbf86c6d8cbd8\core-1.1.0\AndroidManifest.xml:20:5-22:41
MERGED from [androidx.cursoradapter:cursoradapter:1.0.0] C:\Users\MECH304\.gradle\caches\transforms-2\files-2.1\fb2fbe77879a57ea0c5dfd6fe59ba874\cursoradapter-1.0.0\AndroidManifest.xml:20:5-44
MERGED from [androidx.cursoradapter:cursoradapter:1.0.0] C:\Users\MECH304\.gradle\caches\transforms-2\files-2.1\fb2fbe77879a57ea0c5dfd6fe59ba874\cursoradapter-1.0.0\AndroidManifest.xml:20:5-44
MERGED from [androidx.versionedparcelable:versionedparcelable:1.1.0] C:\Users\MECH304\.gradle\caches\transforms-2\files-2.1\78be57497ca2a8dd090798c529f3e53d\versionedparcelable-1.1.0\AndroidManifest.xml:20:5-22:41
MERGED from [androidx.versionedparcelable:versionedparcelable:1.1.0] C:\Users\MECH304\.gradle\caches\transforms-2\files-2.1\78be57497ca2a8dd090798c529f3e53d\versionedparcelable-1.1.0\AndroidManifest.xml:20:5-22:41
MERGED from [androidx.interpolator:interpolator:1.0.0] C:\Users\MECH304\.gradle\caches\transforms-2\files-2.1\3a992d8307f21a8f15eb649383ba6a6a\interpolator-1.0.0\AndroidManifest.xml:20:5-44
MERGED from [androidx.interpolator:interpolator:1.0.0] C:\Users\MECH304\.gradle\caches\transforms-2\files-2.1\3a992d8307f21a8f15eb649383ba6a6a\interpolator-1.0.0\AndroidManifest.xml:20:5-44
MERGED from [androidx.lifecycle:lifecycle-runtime:2.1.0] C:\Users\MECH304\.gradle\caches\transforms-2\files-2.1\ffa46f3d6480310395b7b525cf59ccde\lifecycle-runtime-2.1.0\AndroidManifest.xml:20:5-44
MERGED from [androidx.lifecycle:lifecycle-runtime:2.1.0] C:\Users\MECH304\.gradle\caches\transforms-2\files-2.1\ffa46f3d6480310395b7b525cf59ccde\lifecycle-runtime-2.1.0\AndroidManifest.xml:20:5-44
MERGED from [androidx.lifecycle:lifecycle-viewmodel:2.1.0] C:\Users\MECH304\.gradle\caches\transforms-2\files-2.1\64ed055c454b36433d45a77285ee24d6\lifecycle-viewmodel-2.1.0\AndroidManifest.xml:20:5-44
MERGED from [androidx.lifecycle:lifecycle-viewmodel:2.1.0] C:\Users\MECH304\.gradle\caches\transforms-2\files-2.1\64ed055c454b36433d45a77285ee24d6\lifecycle-viewmodel-2.1.0\AndroidManifest.xml:20:5-44
MERGED from [androidx.savedstate:savedstate:1.0.0] C:\Users\MECH304\.gradle\caches\transforms-2\files-2.1\3819fb4fef2e012192b32762458ba145\savedstate-1.0.0\AndroidManifest.xml:20:5-22:41
MERGED from [androidx.savedstate:savedstate:1.0.0] C:\Users\MECH304\.gradle\caches\transforms-2\files-2.1\3819fb4fef2e012192b32762458ba145\savedstate-1.0.0\AndroidManifest.xml:20:5-22:41
MERGED from [androidx.lifecycle:lifecycle-livedata:2.0.0] C:\Users\MECH304\.gradle\caches\transforms-2\files-2.1\63647da4654da12a6f2785cfbbad8123\lifecycle-livedata-2.0.0\AndroidManifest.xml:20:5-44
MERGED from [androidx.lifecycle:lifecycle-livedata:2.0.0] C:\Users\MECH304\.gradle\caches\transforms-2\files-2.1\63647da4654da12a6f2785cfbbad8123\lifecycle-livedata-2.0.0\AndroidManifest.xml:20:5-44
MERGED from [androidx.lifecycle:lifecycle-livedata-core:2.0.0] C:\Users\MECH304\.gradle\caches\transforms-2\files-2.1\733fc1d306cee2c05d3e1fb0b7527020\lifecycle-livedata-core-2.0.0\AndroidManifest.xml:20:5-44
MERGED from [androidx.lifecycle:lifecycle-livedata-core:2.0.0] C:\Users\MECH304\.gradle\caches\transforms-2\files-2.1\733fc1d306cee2c05d3e1fb0b7527020\lifecycle-livedata-core-2.0.0\AndroidManifest.xml:20:5-44
MERGED from [androidx.arch.core:core-runtime:2.0.0] C:\Users\MECH304\.gradle\caches\transforms-2\files-2.1\fdd65d8b6066fd289a68b42931dc03a2\core-runtime-2.0.0\AndroidManifest.xml:20:5-44
MERGED from [androidx.arch.core:core-runtime:2.0.0] C:\Users\MECH304\.gradle\caches\transforms-2\files-2.1\fdd65d8b6066fd289a68b42931dc03a2\core-runtime-2.0.0\AndroidManifest.xml:20:5-44
MERGED from [androidx.documentfile:documentfile:1.0.0] C:\Users\MECH304\.gradle\caches\transforms-2\files-2.1\f582580d3eb247a74d915a27810a4674\documentfile-1.0.0\AndroidManifest.xml:20:5-44
MERGED from [androidx.documentfile:documentfile:1.0.0] C:\Users\MECH304\.gradle\caches\transforms-2\files-2.1\f582580d3eb247a74d915a27810a4674\documentfile-1.0.0\AndroidManifest.xml:20:5-44
MERGED from [androidx.localbroadcastmanager:localbroadcastmanager:1.0.0] C:\Users\MECH304\.gradle\caches\transforms-2\files-2.1\c75155371656c04dff3a027cdeb13e8a\localbroadcastmanager-1.0.0\AndroidManifest.xml:20:5-44
MERGED from [androidx.localbroadcastmanager:localbroadcastmanager:1.0.0] C:\Users\MECH304\.gradle\caches\transforms-2\files-2.1\c75155371656c04dff3a027cdeb13e8a\localbroadcastmanager-1.0.0\AndroidManifest.xml:20:5-44
MERGED from [androidx.print:print:1.0.0] C:\Users\MECH304\.gradle\caches\transforms-2\files-2.1\53b4a4cf87c0ff501a8c414cec884555\print-1.0.0\AndroidManifest.xml:20:5-44
MERGED from [androidx.print:print:1.0.0] C:\Users\MECH304\.gradle\caches\transforms-2\files-2.1\53b4a4cf87c0ff501a8c414cec884555\print-1.0.0\AndroidManifest.xml:20:5-44
MERGED from [com.google.android.gms:play-services-ads-base:18.3.0] C:\Users\MECH304\.gradle\caches\transforms-2\files-2.1\31a15be1b9cbc0e14a06206e0cbad90d\play-services-ads-base-18.3.0\AndroidManifest.xml:5:5-44
MERGED from [com.google.android.gms:play-services-ads-base:18.3.0] C:\Users\MECH304\.gradle\caches\transforms-2\files-2.1\31a15be1b9cbc0e14a06206e0cbad90d\play-services-ads-base-18.3.0\AndroidManifest.xml:5:5-44
INJECTED from D:\Clonned\bugs-war\AndroidStuff\app\src\main\AndroidManifest.xml
INJECTED from D:\Clonned\bugs-war\AndroidStuff\app\src\main\AndroidManifest.xml
	tools:overrideLibrary
		ADDED from [com.google.android.gms:play-services-ads:18.3.0] C:\Users\MECH304\.gradle\caches\transforms-2\files-2.1\dc024a5074ca48a10ef5590ac9c1f403\jetified-play-services-ads-18.3.0\AndroidManifest.xml:23:9-49
	android:targetSdkVersion
		INJECTED from D:\Clonned\bugs-war\AndroidStuff\app\src\main\AndroidManifest.xml
		ADDED from D:\Clonned\bugs-war\AndroidStuff\app\src\main\AndroidManifest.xml
		INJECTED from D:\Clonned\bugs-war\AndroidStuff\app\src\main\AndroidManifest.xml
	android:minSdkVersion
		INJECTED from D:\Clonned\bugs-war\AndroidStuff\app\src\main\AndroidManifest.xml
		ADDED from D:\Clonned\bugs-war\AndroidStuff\app\src\main\AndroidManifest.xml
		INJECTED from D:\Clonned\bugs-war\AndroidStuff\app\src\main\AndroidManifest.xml
uses-permission#android.permission.INTERNET
ADDED from [com.google.android.gms:play-services-ads-lite:18.3.0] C:\Users\MECH304\.gradle\caches\transforms-2\files-2.1\fc5193868854d7cd947541e78389eacf\play-services-ads-lite-18.3.0\AndroidManifest.xml:23:5-67
MERGED from [com.google.android.gms:play-services-measurement-sdk-api:17.1.0] C:\Users\MECH304\.gradle\caches\transforms-2\files-2.1\a30d31382de4f03f80c19b076c75b8a7\play-services-measurement-sdk-api-17.1.0\AndroidManifest.xml:23:5-67
MERGED from [com.google.android.gms:play-services-measurement-sdk-api:17.1.0] C:\Users\MECH304\.gradle\caches\transforms-2\files-2.1\a30d31382de4f03f80c19b076c75b8a7\play-services-measurement-sdk-api-17.1.0\AndroidManifest.xml:23:5-67
	android:name
		ADDED from [com.google.android.gms:play-services-ads-lite:18.3.0] C:\Users\MECH304\.gradle\caches\transforms-2\files-2.1\fc5193868854d7cd947541e78389eacf\play-services-ads-lite-18.3.0\AndroidManifest.xml:23:22-64
uses-permission#android.permission.ACCESS_NETWORK_STATE
ADDED from [com.google.android.gms:play-services-ads-lite:18.3.0] C:\Users\MECH304\.gradle\caches\transforms-2\files-2.1\fc5193868854d7cd947541e78389eacf\play-services-ads-lite-18.3.0\AndroidManifest.xml:24:5-79
MERGED from [com.google.android.gms:play-services-measurement-sdk-api:17.1.0] C:\Users\MECH304\.gradle\caches\transforms-2\files-2.1\a30d31382de4f03f80c19b076c75b8a7\play-services-measurement-sdk-api-17.1.0\AndroidManifest.xml:24:5-79
MERGED from [com.google.android.gms:play-services-measurement-sdk-api:17.1.0] C:\Users\MECH304\.gradle\caches\transforms-2\files-2.1\a30d31382de4f03f80c19b076c75b8a7\play-services-measurement-sdk-api-17.1.0\AndroidManifest.xml:24:5-79
	android:name
		ADDED from [com.google.android.gms:play-services-ads-lite:18.3.0] C:\Users\MECH304\.gradle\caches\transforms-2\files-2.1\fc5193868854d7cd947541e78389eacf\play-services-ads-lite-18.3.0\AndroidManifest.xml:24:22-76
activity#com.google.android.gms.ads.AdActivity
ADDED from [com.google.android.gms:play-services-ads-lite:18.3.0] C:\Users\MECH304\.gradle\caches\transforms-2\files-2.1\fc5193868854d7cd947541e78389eacf\play-services-ads-lite-18.3.0\AndroidManifest.xml:29:9-33:64
	android:exported
		ADDED from [com.google.android.gms:play-services-ads-lite:18.3.0] C:\Users\MECH304\.gradle\caches\transforms-2\files-2.1\fc5193868854d7cd947541e78389eacf\play-services-ads-lite-18.3.0\AndroidManifest.xml:32:13-37
	android:configChanges
		ADDED from [com.google.android.gms:play-services-ads-lite:18.3.0] C:\Users\MECH304\.gradle\caches\transforms-2\files-2.1\fc5193868854d7cd947541e78389eacf\play-services-ads-lite-18.3.0\AndroidManifest.xml:31:13-122
	android:theme
		ADDED from [com.google.android.gms:play-services-ads-lite:18.3.0] C:\Users\MECH304\.gradle\caches\transforms-2\files-2.1\fc5193868854d7cd947541e78389eacf\play-services-ads-lite-18.3.0\AndroidManifest.xml:33:13-61
	android:name
		ADDED from [com.google.android.gms:play-services-ads-lite:18.3.0] C:\Users\MECH304\.gradle\caches\transforms-2\files-2.1\fc5193868854d7cd947541e78389eacf\play-services-ads-lite-18.3.0\AndroidManifest.xml:30:13-65
provider#com.google.android.gms.ads.MobileAdsInitProvider
ADDED from [com.google.android.gms:play-services-ads-lite:18.3.0] C:\Users\MECH304\.gradle\caches\transforms-2\files-2.1\fc5193868854d7cd947541e78389eacf\play-services-ads-lite-18.3.0\AndroidManifest.xml:35:9-39:39
	android:authorities
		ADDED from [com.google.android.gms:play-services-ads-lite:18.3.0] C:\Users\MECH304\.gradle\caches\transforms-2\files-2.1\fc5193868854d7cd947541e78389eacf\play-services-ads-lite-18.3.0\AndroidManifest.xml:37:13-73
	android:exported
		ADDED from [com.google.android.gms:play-services-ads-lite:18.3.0] C:\Users\MECH304\.gradle\caches\transforms-2\files-2.1\fc5193868854d7cd947541e78389eacf\play-services-ads-lite-18.3.0\AndroidManifest.xml:38:13-37
	android:initOrder
		ADDED from [com.google.android.gms:play-services-ads-lite:18.3.0] C:\Users\MECH304\.gradle\caches\transforms-2\files-2.1\fc5193868854d7cd947541e78389eacf\play-services-ads-lite-18.3.0\AndroidManifest.xml:39:13-36
	android:name
		ADDED from [com.google.android.gms:play-services-ads-lite:18.3.0] C:\Users\MECH304\.gradle\caches\transforms-2\files-2.1\fc5193868854d7cd947541e78389eacf\play-services-ads-lite-18.3.0\AndroidManifest.xml:36:13-76
uses-permission#android.permission.WAKE_LOCK
ADDED from [com.google.android.gms:play-services-measurement-sdk-api:17.1.0] C:\Users\MECH304\.gradle\caches\transforms-2\files-2.1\a30d31382de4f03f80c19b076c75b8a7\play-services-measurement-sdk-api-17.1.0\AndroidManifest.xml:25:5-68
	android:name
		ADDED from [com.google.android.gms:play-services-measurement-sdk-api:17.1.0] C:\Users\MECH304\.gradle\caches\transforms-2\files-2.1\a30d31382de4f03f80c19b076c75b8a7\play-services-measurement-sdk-api-17.1.0\AndroidManifest.xml:25:22-65
meta-data#com.google.android.gms.version
ADDED from [com.google.android.gms:play-services-basement:17.0.0] C:\Users\MECH304\.gradle\caches\transforms-2\files-2.1\b1e2ec9f9fcd94193235fc98ea76492e\jetified-play-services-basement-17.0.0\AndroidManifest.xml:23:9-25:69
	android:value
		ADDED from [com.google.android.gms:play-services-basement:17.0.0] C:\Users\MECH304\.gradle\caches\transforms-2\files-2.1\b1e2ec9f9fcd94193235fc98ea76492e\jetified-play-services-basement-17.0.0\AndroidManifest.xml:25:13-66
	android:name
		ADDED from [com.google.android.gms:play-services-basement:17.0.0] C:\Users\MECH304\.gradle\caches\transforms-2\files-2.1\b1e2ec9f9fcd94193235fc98ea76492e\jetified-play-services-basement-17.0.0\AndroidManifest.xml:24:13-58
